Import_Action,Supplier_Name,Supplier_Site,Procurement_BU,Client_BU,Bill_to_BU,Ship_to_Location,Bill_to_Location,Use_Withholding_Tax,Withholding_Tax_Group,Liability_Distribution,Prepayment_Distribution,Bills_Payable_Distribution,Distribution_Set,Inactive_Date,Batch_ID,END
CREATE,Advanced Network Devices, IMP_S1_SITEA, STDBU-ORC Standard BU, STDBU-ORC Standard BU, STDBU-ORC Standard BU,,, Y,199,,,,,,Batch_a12345,END
UPDATE,Advanced Network Devices, IMP_S1_SITEB, STDBU-ORC Standard BU, STDBU-ORC Standard BU,,,,N,DefferdHidden N <-,,,,,,Batch_a12345,END
UPDATE,Advanced Network Devices, IMP_S1_SITEC, STDBU-ORC Standard BU, STDBU-ORC Standard BU2,,,,N,,01-100-2200-20112-0000,,01-100-2200-11990-0000,,,Batch_a12345,END
